<?xml version="1.0" encoding="utf-8"?>
<!-- Generator: Adobe Illustrator 23.0.0, SVG Export Plug-In . SVG Version: 6.00 Build 0)  -->
<svg version="1.1" id="Layer_1" xmlns="http://www.w3.org/2000/svg" xmlns:xlink="http://www.w3.org/1999/xlink" x="0px" y="0px"
	 viewBox="0 0 38 38" style="enable-background:new 0 0 38 38;" xml:space="preserve">
<style type="text/css">
	.st0{fill:#EF3829;}
</style>
<g>
	<g>
		<path class="st0" d="M36.1,10.1h-4.6V9h3.4c0-1.2-1-2.2-2.3-2.2h-2.9V5.7h2.9C34.5,5.7,36,7.2,36,9L36.1,10.1L36.1,10.1z"/>
	</g>
	<g>
		<path class="st0" d="M27,32.3c1.9,0,3.4-1.4,3.4-3.3V9c0-1.2,1-2.2,2.3-2.2V5.7H15c-1.9,0-3.4,1.5-3.4,3.3v1.7h1.1V9
			c0-1.2,1-2.2,2.3-2.2h15.2c-0.6,0.6-0.9,1.3-0.9,2.2v20c0,1.2-1,2.2-2.3,2.2"/>
		<path class="st0" d="M11.6,28.7c0.2,0,0.3,0,0.5,0c0.2,0.1,0.4,0.1,0.6,0.1v-3.3h-1.1V28.7z"/>
	</g>
	<path class="st0" d="M27,32.3H11.6c-1.9,0-3.4-1.5-3.4-3.3v-0.6h16.5V29c0,1.2,1,2.2,2.3,2.2V32.3z M9.4,29.6
		c0.3,1,1.2,1.7,2.2,1.7h12.9c-0.4-0.5-0.7-1-0.8-1.7H9.4z"/>
	<path class="st0" d="M17.8,25.6l-0.2-0.3C16.4,25.1,11,24,9.2,23l-1.1-0.7L9,22c-1.2-0.3-2.5-0.8-3.8-2.5c-0.7-0.9-1.3-1.9-1.8-3.1
		l-0.4-1l0.8,0.1c-0.6-0.5-1.1-1.2-1.4-2.2C1.8,11,1.9,9,2.5,7.5l0.3-0.8l0.6,0.7C5,9.2,6.9,9.9,9.2,10.7l0.9,0.3
		c0.7,0.3,1.4,0.6,2,1c1,0.7,1.5,1.4,1.8,2.1l0.1-0.8l0.8,0.8c2.5,2.6,4.3,7.7,3.7,10.4l0.2,0.3L17.8,25.6z M10.8,22.5
		c1.8,0.7,4.8,1.3,6.6,1.7c0.3-2-0.9-5.8-2.8-8.3c-0.1,0.2-0.2,0.4-0.2,0.6L13.7,18l-0.5-2c-0.3-1.1-0.5-2-1.8-2.9
		c-0.6-0.3-1.2-0.6-1.8-0.8L8.7,12c-2-0.7-4-1.4-5.6-2.9c-0.3,1.2-0.2,2.6,0.2,4.2c0.5,1.4,1.3,1.9,2.3,2.5L7.5,17l-1.8,0.1
		c-0.3,0-0.7,0-1,0c0.4,0.7,0.8,1.4,1.2,2c1.5,1.9,2.8,2,4.4,2.3l2.2,0.3l-1.4,0.8C11.1,22.3,11,22.4,10.8,22.5z"/>
	<g>
		<path class="st0" d="M20.1,27.3c-0.1,0-0.3-0.1-0.4-0.2L6.6,14.4c-0.2-0.2-0.2-0.6,0-0.8c0.2-0.2,0.6-0.2,0.8,0l13.1,12.8
			c0.2,0.2,0.2,0.6,0,0.8C20.4,27.3,20.3,27.3,20.1,27.3z"/>
	</g>
</g>
</svg>
